{
    "api":[ 
        {"key":"自用在线配置","name":"🌻自用在线配置","ext":"https://gitcode.net/lhtv/bf/-/raw/master/box.json","date":"2022-09-11 15:52:05" },
        {"key":"自用在线配置2","name":"🌻自用在线配置","ext":"https://gitcode.net/lhtv/v/-/raw/main/8.txt","date":"2022-09-11 15:52:05" },
        {"key":"本地配置","name":"⭐本地配置","ext":"clan://localhost/Download/plutoplayer/tvbox.json","date":"🍁需配置并获取储存权限" },
        {"key":"空格","name":"--------------------------","ext":"/","date":" "},        
        
        
               
        {"key":"云星家庭","name":"☁️云星家庭〔纯绿色家庭版〕","ext":"http://maoyingshi.cc/tvbox/云星日记/1.m3u8","date":"2022-09-06 11:52:05" },
        {"key":"云星阿里","name":"☁️云星阿里〔小纸条/推送等〕","ext":"http://maoyingshi.cc/tvbox/云星日记/ali.m3u8","date":"2022-09-06 11:52:05" },
        {"key":"云星哔哩","name":"☁️云星哔哩〔大套餐/学堂等〕","ext":"http://maoyingshi.cc/tvbox/云星日记/bili.json","date":"2022-09-06 11:52:05" },
        {"key":"刚刚","name":"💖刚刚〔多条线路〕","ext":"http://刚刚.live/猫","date":"2022-09-06 11:52:05" },
        {"key":"️太阳","name":"☀️太阳〔XBXP爬虫线路〕","ext":"http://miaotvs.cn/osc","date":"2022-09-06 11:52:05" },
        {"key":"神器推送","name":"🤪神器推送〔多条线路〕","ext":"https://神器每日推送.tk/pz.json","date":"2022-09-06 11:52:05"},
        {"key":"南风","name":"🏔南风〔多条线路〕","ext":"https://gitea.com/Yoursmile/TVBox/raw/branch/main/XC.json","date":"2022-09-06 11:52:05"},
        {"key":"张宏","name":"🌈张宏〔多条线路〕","ext":"https://gitee.com/zhanghong19830310/tv/raw/master/tv/giteetvboxjt.json","date":"2022-09-06 11:52:05"},        
        {"key":"老刘备","name":"🍸老刘备〔多条线路〕","ext":"https://raw.iqiq.io/liu673cn/box/main/m.json","date":"2022-09-06 11:52:05"},        
        {"key":"懒人","name":"👱懒人线路〔多条线路〕","ext":"https://box.okeybox.top/tv/0xth.json","date":"2022-09-06 11:52:05"},        
        {"key":"白嫖","name":"💨白嫖线路〔多条线路〕","ext":"http://js.134584.xyz/json/pp87.json","date":"2022-09-06 11:52:05"},        
        {"key":"兽爪","name":"🐾兽爪线路〔多条线路〕","ext":"http://52bsj.vip:81/api/v3/file/get/46060/Tv%20box%E6%BA%902.txt?sign=yI8sCYT8pei-pxp1_xwLjWOfepQ9b7c1y6Q_QD_0RY4%3D%3A0","date":"2022-09-10 11:52:05"},        
        {"key":"月光宝盒","name":"🌙月光宝盒线路〔多条线路〕","ext":"http://52bsj.vip:81/api/v3/file/get/29899/box2.json?sign=3cVyKZQr3lFAwdB3HK-A7h33e0MnmG6lLB9oWlvSNnM%3D%3A0","date":"2022-09-10 11:52:05"},       
        
         
          {"key":"云，","name":"发布","ext":"http://api.xiaoz.fit/1.json","date":"2022-09-06 11:52:05" },
            
                        
        {"key":"空格2","name":"------------------------------","ext":"/","date":"  "}
           
                                         
             ]
    }
